<?xml version="1.0" encoding="UTF-8" standalone="no"?>
<!-- Created with Inkscape (http://www.inkscape.org/) -->

<svg
   width="820"
   height="680"
   viewBox="0 0 216.95833 179.91666"
   version="1.1"
   id="svg5"
   sodipodi:docname="21.svg"
   inkscape:version="1.1.2 (1:1.1+202202050950+0a00cf5339)"
   inkscape:export-filename="/home/alexandr/Загрузки/logo animate/images/21.png"
   inkscape:export-xdpi="108.04172"
   inkscape:export-ydpi="108.04172"
   xmlns:inkscape="http://www.inkscape.org/namespaces/inkscape"
   xmlns:sodipodi="http://sodipodi.sourceforge.net/DTD/sodipodi-0.dtd"
   xmlns="http://www.w3.org/2000/svg"
   xmlns:svg="http://www.w3.org/2000/svg">
  <sodipodi:namedview
     id="namedview7"
     pagecolor="#ffffff"
     bordercolor="#666666"
     borderopacity="1.0"
     inkscape:pageshadow="2"
     inkscape:pageopacity="0.0"
     inkscape:pagecheckerboard="0"
     inkscape:document-units="mm"
     showgrid="false"
     inkscape:snap-bbox="false"
     inkscape:zoom="0.53341258"
     inkscape:cx="422.74968"
     inkscape:cy="384.3179"
     inkscape:window-width="1600"
     inkscape:window-height="815"
     inkscape:window-x="0"
     inkscape:window-y="0"
     inkscape:window-maximized="1"
     inkscape:current-layer="layer1"
     showguides="true"
     units="px"
     width="820px" />
  <defs
     id="defs2" />
  <g
     inkscape:label="Слой 1"
     inkscape:groupmode="layer"
     id="layer1">
    <text
       xml:space="preserve"
       style="font-style:normal;font-weight:normal;font-size:10.5833px;line-height:1.25;font-family:sans-serif;letter-spacing:0px;word-spacing:0px;fill:#000000;fill-opacity:1;stroke:none;stroke-width:0.264583"
       x="-59.751087"
       y="110.71303"
       id="text46025"><tspan
         sodipodi:role="line"
         id="tspan46023"
         style="stroke-width:0.264583"
         x="-59.751087"
         y="110.71303" /></text>
    <path
       id="path20402-7-29-8-7"
       style="fill:#b2dfdb;fill-opacity:1;stroke-width:0.245272;opacity:0"
       d="m -1601.2443,-70.794 a 83.532026,83.022444 0 0 0 -29.7217,5.61981 v 8.38243 a 75.369033,75.369033 0 0 1 29.7217,-6.34896 75.369033,75.369033 0 0 1 75.3235,73.63219 h 8.0838 a 83.532026,83.022444 0 0 0 -83.4073,-81.28547 z m 60.1281,128.42677 a 75.369033,75.369033 0 0 1 -60.1281,29.96458 75.369033,75.369033 0 0 1 -60.0025,-29.92944 h -9.8522 a 83.532026,83.022444 0 0 0 69.8547,37.583231 83.532026,83.022444 0 0 0 69.914,-37.618371 z"
       inkscape:export-filename="/home/alexandr/Загрузки/5.png"
       inkscape:export-xdpi="108.04172"
       inkscape:export-ydpi="108.04172" />
    <path
       id="text2500-8-48-0-1"
       style="font-style:normal;font-variant:normal;font-weight:bold;font-stretch:normal;font-size:70.5556px;line-height:1.25;font-family:sans-serif;-inkscape-font-specification:'sans-serif, Bold';font-variant-ligatures:normal;font-variant-caps:normal;font-variant-numeric:normal;font-variant-east-asian:normal;letter-spacing:0px;word-spacing:0px;fill:#009688;fill-opacity:1;stroke:none;stroke-width:0.882901"
       d="m 18.450635,22.51031 v 8.8904 h 13.6875 v 30.74592 l 10.6542,1.202 V 37.25047 31.40071 h 13.6875 v -8.8904 z m 24.3417,47.73712 -10.6542,0.0615 v 2.57812 h 10.6542 z"
       inkscape:export-filename="/home/alexandr/Загрузки/1.png"
       inkscape:export-xdpi="108.04172"
       inkscape:export-ydpi="108.04172" />
    <path
       id="text6222-5-04-4-7"
       style="font-style:normal;font-variant:normal;font-weight:bold;font-stretch:normal;font-size:52.9167px;line-height:1.25;font-family:sans-serif;-inkscape-font-specification:'sans-serif, Bold';font-variant-ligatures:normal;font-variant-caps:normal;font-variant-numeric:normal;font-variant-east-asian:normal;letter-spacing:0px;word-spacing:0px;fill:#009688;fill-opacity:1;stroke:none;stroke-width:0.749324"
       d="m 101.90714,89.75218 v 40.21666 h 7.8847 V 89.75218 Z m 66.2517,0 v 9.26041 c 0,1.12889 0.07,2.24003 0.2114,3.33364 0.1411,1.05834 0.2647,1.87004 0.3705,2.43448 h -0.2646 c -0.7761,-1.19944 -1.8344,-2.20496 -3.175,-3.01635 -1.3405,-0.81139 -3.0516,-1.21697 -5.133,-1.21697 -3.3161,0 -5.9968,1.26958 -8.0429,3.80957 -2.0461,2.54001 -3.0696,6.27956 -3.0696,11.21844 0,4.90362 1.0055,8.62573 3.0164,11.16573 2.0461,2.50472 4.6745,3.75687 7.8847,3.75687 2.0814,0 3.7746,-0.40559 5.0798,-1.21698 1.3053,-0.84665 2.3462,-1.86961 3.1223,-3.06905 h 0.3173 l 1.5348,3.75688 h 6.0322 V 89.75219 Z m -85.619005,10.79521 c -2.7165,0 -5.0977,0.56403 -7.1438,1.69292 -2.0461,1.12889 -3.6516,2.82252 -4.8157,5.08031 -1.1288,2.2225 -1.6934,5.02677 -1.6934,8.41344 0,3.3161 0.6352,6.06808 1.9052,8.25531 1.27,2.18722 3.016,3.82753 5.2386,4.92113 2.2225,1.05834 4.7801,1.5875 7.6729,1.5875 2.2225,0 4.1099,-0.17638 5.6621,-0.52916 1.5875,-0.3175 3.0868,-0.82924 4.4979,-1.53479 v -6.08542 c -1.6227,0.77612 -3.1923,1.35861 -4.7093,1.74667 -1.5168,0.35278 -3.2105,0.52916 -5.0802,0.52916 -2.2226,0 -3.9684,-0.63531 -5.2384,-1.90531 -1.2348,-1.26999 -1.8875,-3.01594 -1.9581,-5.23844 h 18.6268 v -3.8101 c 0,-4.19806 -1.1645,-7.42586 -3.4929,-9.68365 -2.3283,-2.29306 -5.4853,-3.43957 -9.4717,-3.43957 z m 47.836305,0 c -4.3744,0 -7.814,1.28753 -10.3187,3.86281 -2.5048,2.57528 -3.7569,6.2615 -3.7569,11.05927 0,3.21028 0.5994,5.94431 1.7988,8.20209 1.1995,2.2225 2.8403,3.91614 4.9217,5.08031 2.1167,1.16417 4.5154,1.74614 7.1965,1.74614 4.3391,0 7.7613,-1.30548 10.266,-3.91604 2.54,-2.61055 3.8096,-6.31471 3.8096,-11.1125 0,-3.21027 -0.5994,-5.90892 -1.7989,-8.09614 -1.1994,-2.2225 -2.8397,-3.91563 -4.9211,-5.0798 -2.0814,-1.16416 -4.4806,-1.74614 -7.197,-1.74614 z m 49.7944,0.52917 11.483,28.68041 -0.4759,1.42886 c -0.4586,1.41111 -1.1821,2.61045 -2.1699,3.59823 -0.9525,1.02305 -2.2575,1.53479 -3.9155,1.53479 -0.5998,0 -1.1823,-0.0354 -1.7467,-0.10594 -0.5292,-0.0705 -0.9876,-0.1408 -1.3756,-0.21135 v 6.24406 c 0.4939,0.10583 1.0584,0.19403 1.6934,0.26458 0.6703,0.10583 1.4466,0.15865 2.3286,0.15865 2.7516,0 5.1677,-0.75837 7.2491,-2.27532 2.1167,-1.48166 3.7221,-3.7219 4.8157,-6.72052 l 12.2236,-32.59645 h -8.4667 l -5.3444,16.245 c -0.2469,0.77611 -0.4761,1.58781 -0.6878,2.43447 -0.1764,0.81139 -0.3179,1.67539 -0.4237,2.5926 h -0.1587 c -0.071,-0.91721 -0.1761,-1.78122 -0.3173,-2.5926 -0.1411,-0.84666 -0.3528,-1.65837 -0.6351,-2.43447 l -5.4503,-16.245 z m -97.578105,5.07979 c 1.8698,0 3.2455,0.58198 4.1274,1.74614 0.882,1.12889 1.3409,2.57538 1.3762,4.33927 h -11.0598 c 0.1764,-2.08139 0.7583,-3.61607 1.7461,-4.60385 1.0231,-0.98778 2.2932,-1.48156 3.8101,-1.48156 z m 47.677805,0.74104 c 2.1167,0 3.6339,0.72298 4.5511,2.16937 0.9525,1.41112 1.4289,3.54521 1.4289,6.40271 0,2.85751 -0.4764,5.0275 -1.4289,6.50917 -0.9172,1.44639 -2.4165,2.16937 -4.4979,2.16937 -2.1167,0 -3.6513,-0.72298 -4.6038,-2.16937 -0.9173,-1.48167 -1.3757,-3.65166 -1.3757,-6.50917 0,-2.8575 0.4584,-4.99159 1.3757,-6.40271 0.9525,-1.44639 2.4692,-2.16937 4.5506,-2.16937 z m 32.3324,0.0527 c 2.3283,0 3.9158,0.74093 4.7625,2.2226 0.8819,1.48167 1.3229,3.63371 1.3229,6.45594 v 0.84646 c -0.035,2.57528 -0.4942,4.51555 -1.3761,5.82083 -0.882,1.27 -2.4162,1.90479 -4.6034,1.90479 -1.7991,0 -3.1928,-0.70555 -4.1806,-2.11667 -0.9878,-1.44639 -1.4816,-3.58049 -1.4816,-6.40271 0,-2.82223 0.4938,-4.97427 1.4816,-6.45594 0.9878,-1.51693 2.3461,-2.27531 4.0747,-2.2753 z"
       inkscape:export-filename="/home/alexandr/Загрузки/1.png"
       inkscape:export-xdpi="108.04172"
       inkscape:export-ydpi="108.04172" />
    <path
       id="path20402-7-29-8-5"
       style="fill:#b2dfdb;fill-opacity:1;stroke-width:0.927012"
       d="M 361.05859 22.646484 A 313.78562 315.71159 45 0 0 165.23438 85.078125 L 213.4668 85.078125 L 213.4668 88.722656 A 284.85934 284.85934 0 0 1 548.53125 131.07422 L 570.13477 109.4707 A 313.78562 315.71159 45 0 0 361.05859 22.646484 z M 660.06055 271.51758 L 633.9082 297.67188 A 284.85934 284.85934 0 0 1 636.63477 339.2207 L 666.41602 339.2207 A 313.78562 315.71159 45 0 0 660.06055 271.51758 z M 575.03906 514.02148 A 284.85934 284.85934 0 0 1 553.29492 538.44531 A 284.85934 284.85934 0 0 1 312.94922 618.81836 L 286.61914 645.14844 A 313.78562 315.71159 45 0 0 573.75 558.90039 A 313.78562 315.71159 45 0 0 610.76172 514.02148 L 575.03906 514.02148 z "
       transform="scale(0.26458333)" />
    <path
       id="text22679-4-6-7-9"
       style="font-style:normal;font-variant:normal;font-weight:bold;font-stretch:normal;font-size:59.9722px;line-height:1.25;font-family:sans-serif;-inkscape-font-specification:'sans-serif, Bold';font-variant-ligatures:normal;font-variant-caps:normal;font-variant-numeric:normal;font-variant-east-asian:normal;letter-spacing:0px;word-spacing:0px;fill:#009688;fill-opacity:1;stroke:none;stroke-width:0.264583"
       d="m 17.502935,87.07121 v 31.92156 l 8.0961,1.78284 v -10.7952 c 0,-1.47932 -0.04,-3.11838 -0.1199,-4.91753 -0.08,-1.83916 -0.1603,-3.55857 -0.2403,-5.15783 l -0.1798,-3.59823 h 0.2399 l 8.0393,26.17359 12.1693,2.67994 9.4779,-28.79359 h 0.2398 l -0.1798,3.59823 c -0.04,1.55928 -0.1,3.21881 -0.1799,4.978 -0.04,1.75918 -0.06,3.31838 -0.06,4.67775 v 17.58755 l 7.2249,1.59112 -7.2249,0.0811 v 1.01079 h 8.4558 V 87.07121 h -12.3543 l -10.7347,32.74476 h -0.1799 l -10.1353,-32.74476 z m 26.7415,41.92766 -8.8734,0.0992 0.2435,0.79323 h 8.3359 z m -18.6454,0.20878 -8.0961,0.091 v 0.59271 h 8.0961 z"
       inkscape:export-filename="/home/alexandr/Загрузки/1.png"
       inkscape:export-xdpi="108.04172"
       inkscape:export-ydpi="108.04172" />
    <text
       xml:space="preserve"
       style="font-style:normal;font-variant:normal;font-weight:bold;font-stretch:normal;font-size:52.9167px;line-height:1.25;font-family:sans-serif;-inkscape-font-specification:'sans-serif, Bold';font-variant-ligatures:normal;font-variant-caps:normal;font-variant-numeric:normal;font-variant-east-asian:normal;letter-spacing:0px;word-spacing:0px;fill:#009688;fill-opacity:1;stroke:none;stroke-width:0.264583"
       x="97.907761"
       y="74.655426"
       id="text34401-1-104-0-6"
       inkscape:export-filename="/home/alexandr/Загрузки/1.png"
       inkscape:export-xdpi="108.04172"
       inkscape:export-ydpi="108.04172"><tspan
         sodipodi:role="line"
         id="tspan34399-8-2-8-2"
         style="font-style:normal;font-variant:normal;font-weight:bold;font-stretch:normal;font-size:52.9167px;font-family:sans-serif;-inkscape-font-specification:'sans-serif, Bold';font-variant-ligatures:normal;font-variant-caps:normal;font-variant-numeric:normal;font-variant-east-asian:normal;fill:#009688;fill-opacity:1;stroke-width:0.264583"
         x="97.907761"
         y="74.655426">p</tspan></text>
    <path
       id="text49263-5-22-62-1"
       style="font-style:normal;font-variant:normal;font-weight:bold;font-stretch:normal;font-size:52.9167px;line-height:1.25;font-family:sans-serif;-inkscape-font-specification:'sans-serif, Bold';font-variant-ligatures:normal;font-variant-caps:normal;font-variant-numeric:normal;font-variant-east-asian:normal;letter-spacing:0px;word-spacing:0px;fill:#009688;fill-opacity:1;stroke:none;stroke-width:0.264583"
       d="m 75.344335,45.17919 c -4.3745,0 -7.814,1.28754 -10.3188,3.86282 -2.5046,2.57529 -3.7573,6.26201 -3.7573,11.0598 0,1.88141 0.2076,3.59787 0.6196,5.15213 l 8.5803,0.9679 c -0.77,-1.46316 -1.1565,-3.50184 -1.1565,-6.12004 0,-2.85751 0.4589,-4.99212 1.3761,-6.40323 0.9525,-1.44639 2.4693,-2.16938 4.5507,-2.16938 2.1166,0 3.6334,0.72299 4.5506,2.16938 0.9525,1.41111 1.4288,3.54572 1.4288,6.40323 0,2.8575 -0.4763,5.02698 -1.4288,6.50864 -0.1403,0.22117 -0.2956,0.42347 -0.463,0.61082 l 8.279,0.93379 c 1.1018,-2.2111 1.6563,-4.89344 1.6563,-8.05325 0,-3.21028 -0.6,-5.90893 -1.7993,-8.09615 -1.1994,-2.2225 -2.8399,-3.91614 -4.9212,-5.08031 -2.0814,-1.16417 -4.4801,-1.74615 -7.1965,-1.74615 z m 11.7119,23.96857 -23.4084,0.13436 c 1.1306,1.74692 2.5768,3.11487 4.3409,4.10155 2.1166,1.16417 4.5158,1.74615 7.197,1.74615 4.3391,0 7.7608,-1.30497 10.2655,-3.91552 0.6086,-0.62543 1.1423,-1.31558 1.605,-2.06654 z"
       inkscape:export-filename="/home/alexandr/Загрузки/1.png"
       inkscape:export-xdpi="108.04172"
       inkscape:export-ydpi="108.04172" />
  </g>
</svg>
